{
  "pluginsConfig": {
    "@nx/js": {
      "analyzeSourceFiles": true
    },
    "@nx/eslint/plugin": {
      "targetName": "lint"
    }
  },
  "extends": "nx/presets/npm.json",
  "$schema": "./node_modules/nx/schemas/nx-schema.json",
  "workspaceLayout": {
    "appsDir": "apps",
    "libsDir": "packages"
  },
  "namedInputs": {
    "default": ["{projectRoot}/**/*", "{workspaceRoot}/package.json", "sharedGlobals"],
    "production": [
      "default",
      "!{projectRoot}/**/?(*.)+(spec|test).[jt]s?(x)?(.snap)",
      "!{projectRoot}/tsconfig.spec.json",
      "!{projectRoot}/jest.config.[jt]s",
      "!{projectRoot}/src/test-setup.[jt]s",
      "!{projectRoot}/test-setup.[jt]s",
      "!{projectRoot}/.eslintrc.json",
      "!{projectRoot}/eslint.config.js",
      "!{projectRoot}/.stylelintrc.json",
      "!{projectRoot}/.markdownlint.yml",
      "!{projectRoot}/.markdownlintignore",
      "!{projectRoot}/playwright.config.ts",
      "!{workspaceRoot}/dist"
    ],
    "sharedGlobals": [
      {
        "runtime": "node --version"
      }
    ]
  },
  "targetDefaults": {
    "prebuild": {
      "cache": true
    },
    "build": {
      "dependsOn": ["^build"],
      "inputs": ["production", "^production"],
      "cache": true
    },
    "test:unit": {
      "inputs": [
        "default",
        "^default",
        "{workspaceRoot}/jest.preset.js",
        "{workspaceRoot}/jest.config.js",
        {
          "externalDependencies": ["jest"]
        }
      ]
    }
  },
  "generators": {
    "@nx/react": {
      "application": {
        "babel": true
      }
    },
    "@nx/angular:library": {
      "linter": "none",
      "unitTestRunner": "none"
    },
    "@nx/angular:component": {
      "style": "scss"
    }
  },
  "release": {
    "version": {
      "git": {
        "commit": false,
        "tag": false,
        "stageChanges": false
      }
    }
  }
}
