{
  "name": "site",
  "$schema": "../../node_modules/nx/schemas/project-schema.json",
  "sourceRoot": "apps/site/src",
  "tags": ["site", "docusaurus", "govbr-ds", "webcomponents"],
  "namedInputs": {
    "production": ["default"]
  },
  "targets": {
    "docusaurus": {
      "executor": "nx:run-commands",
      "options": {
        "commands": [
          {
            "command": "docusaurus",
            "cwd": "apps/site"
          }
        ]
      }
    },
    "build": {
      "executor": "nx:run-commands",
      "outputs": ["{options.outputPath}"],
      "dependsOn": [
        {
          "target": "postbuild",
          "projects": "webcomponents"
        }
      ],
      "options": {
        "command": "docusaurus build --out-dir=../../dist/site",
        "cwd": "apps/site",
        "inputs": ["{root}/docs/**/*.(md|mdx)", "{root}/blog/**/*.(md|mdx)"],
        "outputs": ["apps/site/"]
      }
    },
    "start": {
      "executor": "nx:run-commands",
      "dependsOn": [
        {
          "target": "postbuild",
          "projects": "webcomponents"
        }
      ],
      "options": {
        "command": "docusaurus start",
        "cwd": "apps/site"
      }
    },
    "swizzle": {
      "executor": "nx:run-commands",
      "options": {
        "command": "docusaurus swizzle",
        "cwd": "apps/site"
      }
    },
    "clear": {
      "executor": "nx:run-commands",
      "options": {
        "command": "docusaurus clear",
        "cwd": "apps/site"
      }
    },
    "serve": {
      "executor": "nx:run-commands",
      "dependsOn": [
        {
          "target": "postbuild",
          "projects": "webcomponents"
        },
        {
          "target": "build"
        }
      ],
      "options": {
        "command": "docusaurus serve --dir=../../dist/site",
        "cwd": "apps/site"
      }
    },
    "write-translations": {
      "executor": "nx:run-commands",
      "options": {
        "command": "docusaurus write-translations",
        "cwd": "apps/site"
      }
    },
    "write-heading-ids": {
      "executor": "nx:run-commands",
      "options": {
        "command": "docusaurus write-heading-ids",
        "cwd": "apps/site"
      }
    },
    "lint:tsx": {
      "executor": "@nx/eslint:lint",
      "inputs": ["default"],
      "options": {
        "lintFilePatterns": ["{projectRoot}/**/*.{ts,tsx}"],
        "fix": true
      }
    },
    "lint:md": {
      "executor": "nx:run-commands",
      "inputs": ["default"],
      "options": {
        "commands": ["cross-env markdownlint -d -f '{projectRoot}/**/*.md'"],
        "config": "{projectRoot}/.markdownlint.yml"
      }
    },
    "lint:styles": {
      "executor": "nx-stylelint:lint",
      "outputs": ["{options.outputFile}"],
      "options": {
        "lintFilePatterns": ["{projectRoot}/**/*.css", "{projectRoot}/**/*.scss"],
        "configFile": "packages/webcomponents/.stylelintrc.json"
      }
    }
  }
}
